Praktischer Teil/Verilog/CPU/Prozessor/src/tb.vcd
$date
	Mon Dec 29 17:17:18 2025
$end
$version
	Icarus Verilog
$end
$timescale
	1ns
$end
$scope module tb_cpu $end
$var wire 4 ! pc_trace [3:0] $end
$var reg 1 " clk $end
$var reg 1 # rst $end
$scope module uut $end
$var wire 1 " clk $end
$var wire 1 # rst $end
$var wire 32 $ pc [31:0] $end
$var wire 32 % instr_addr [31:0] $end
$var wire 32 & instr [31:0] $end
$var wire 1 ' imem_ce $end
$var wire 4 ( dmem_write [3:0] $end
$var wire 32 ) dmem_wdata [31:0] $end
$var wire 1 * dmem_read $end
$var wire 32 + dmem_rdata_connect [31:0] $end
$var wire 1 , dmem_ce $end
$var wire 32 - dmem_addr [31:0] $end
$var reg 4 . pc_trace [3:0] $end
$scope module dmem $end
$var wire 1 " clk $end
$var wire 1 # rst $end
$var wire 4 / we [3:0] $end
$var wire 1 * re $end
$var wire 32 0 data_in [31:0] $end
$var wire 1 , ce $end
$var wire 32 1 addr [31:0] $end
$var reg 32 2 data_out [31:0] $end
$upscope $end
$scope module imem $end
$var wire 1 " clk $end
$var wire 1 3 oce $end
$var wire 1 # rst $end
$var wire 32 4 dout [31:0] $end
$var wire 1 ' ce $end
$var wire 32 5 addr [31:0] $end
$upscope $end
$scope module machine $end
$var wire 1 " clk $end
$var wire 32 6 dmem_rdata [31:0] $end
$var wire 32 7 instr [31:0] $end
$var wire 1 # rst $end
$var wire 32 8 x0 [31:0] $end
$var wire 32 9 x1 [31:0] $end
$var wire 32 : x10 [31:0] $end
$var wire 32 ; x11 [31:0] $end
$var wire 32 < x12 [31:0] $end
$var wire 32 = x13 [31:0] $end
$var wire 32 > x14 [31:0] $end
$var wire 32 ? x15 [31:0] $end
$var wire 32 @ x16 [31:0] $end
$var wire 32 A x17 [31:0] $end
$var wire 32 B x18 [31:0] $end
$var wire 32 C x19 [31:0] $end
$var wire 32 D x2 [31:0] $end
$var wire 32 E x20 [31:0] $end
$var wire 32 F x21 [31:0] $end
$var wire 32 G x22 [31:0] $end
$var wire 32 H x23 [31:0] $end
$var wire 32 I x24 [31:0] $end
$var wire 32 J x25 [31:0] $end
$var wire 32 K x26 [31:0] $end
$var wire 32 L x27 [31:0] $end
$var wire 32 M x28 [31:0] $end
$var wire 32 N x29 [31:0] $end
$var wire 32 O x3 [31:0] $end
$var wire 32 P x30 [31:0] $end
$var wire 32 Q x31 [31:0] $end
$var wire 32 R x4 [31:0] $end
$var wire 32 S x5 [31:0] $end
$var wire 32 T x6 [31:0] $end
$var wire 32 U x7 [31:0] $end
$var wire 32 V x8 [31:0] $end
$var wire 32 W x9 [31:0] $end
$var reg 32 X dmem_addr [31:0] $end
$var reg 1 , dmem_ce $end
$var reg 1 * dmem_read $end
$var reg 32 Y dmem_wdata [31:0] $end
$var reg 4 Z dmem_write [3:0] $end
$var reg 3 [ funct3 [2:0] $end
$var reg 7 \ funct7 [6:0] $end
$var reg 1 ' imem_ce $end
$var reg 32 ] imm [31:0] $end
$var reg 32 ^ instr_addr [31:0] $end
$var reg 7 _ opcode [6:0] $end
$var reg 32 ` pc [31:0] $end
$var reg 32 a pc_next [31:0] $end
$var reg 5 b rd [4:0] $end
$var reg 5 c rs1 [4:0] $end
$var reg 5 d rs2 [4:0] $end
$var reg 5 e shift_amt [4:0] $end
$var reg 3 f state [2:0] $end
$var reg 32 g tmp_mem_addr [31:0] $end
$var reg 32 h tmp_memw_data [31:0] $end
$var reg 32 i tmp_rd [31:0] $end
$var integer 32 j i [31:0] $end
$scope task show_instruction $end
$var reg 3 k funct3 [2:0] $end
$var reg 7 l funct7 [6:0] $end
$var reg 32 m imm [31:0] $end
$var reg 32 n instr [31:0] $end
$var reg 7 o opcode [6:0] $end
$var reg 5 p rd [4:0] $end
$var reg 5 q rs1 [4:0] $end
$var reg 5 r rs2 [4:0] $end
$upscope $end
$upscope $end
$upscope $end
$upscope $end
$enddefinitions $end
$comment Show the parameter values. $end
$dumpall
$end
#0
$dumpvars
bx r
bx q
bx p
bx o
bx n
bx m
bx l
bx k
b100000 j
b0 i
bx h
bx g
b0 f
bx e
bx d
bx c
bx b
b0 a
b0 `
bx _
b0 ^
bx ]
bx \
bx [
b0 Z
bx Y
b0 X
b0 W
b0 V
b0 U
b0 T
b0 S
b0 R
b0 Q
b0 P
b0 O
b0 N
b0 M
b0 L
b0 K
b0 J
b0 I
b0 H
b0 G
b0 F
b0 E
b0 D
b0 C
b0 B
b0 A
b0 @
b0 ?
b0 >
b0 =
b0 <
b0 ;
b0 :
b0 9
b0 8
b0 7
bx 6
b0 5
b0 4
13
bx 2
b0 1
bx 0
b0 /
bx .
b0 -
0,
bx +
0*
bx )
b0 (
0'
b0 &
b0 %
b0 $
1#
0"
bx !
$end
#25
b0 !
b0 .
b100000 j
1"
#50
0"
#75
b100000 j
1"
#100
0"
#125
b100000 j
1"
#150
0"
0#
#175
b1000000000000000010010011 &
b1000000000000000010010011 4
b1000000000000000010010011 7
b1 f
b100 a
1'
1"
#200
0"
#225
b10 f
b10000 ]
b0 \
b10000 d
b0 c
b0 [
b1 b
b10011 _
1"
#250
0"
#275
b0 &
b0 4
b0 7
b11 f
b10000 i
0'
1"
#300
0"
#325
b100 f
1"
#350
0"
#375
b101 f
1"
#400
0"
#425
b0 f
b10000 9
b100 $
b100 `
b0 )
b0 0
b0 Y
b0 m
b0 l
b0 r
b0 q
b0 k
b0 p
b0 o
b0 n
1"
#450
0"
#475
b11111111111100000000000100010011 &
b11111111111100000000000100010011 4
b11111111111100000000000100010011 7
b100 !
b100 .
b1 f
b1000 a
b100 %
b100 5
b100 ^
1'
1"
#500
0"
#525
b10 f
b11111111111111111111111111111111 ]
b1111111 \
b11111 d
b10 b
1"
#550
0"
#575
b0 &
b0 4
b0 7
b11 f
b11111111111111111111111111111111 i
0'
1"
#600
0"
#625
b100 f
1"
#650
0"
#675
b101 f
1"
#700
0"
#725
b0 f
b11111111111111111111111111111111 D
b1000 $
b1000 `
1"
#750
0"
#775
b1000001010000000100011 &
b1000001010000000100011 4
b1000001010000000100011 7
b1000 !
b1000 .
b1 f
b1100 a
b1000 %
b1000 5
b1000 ^
1'
1"
#800
0"
#825
b10 f
b0 ]
b0 \
b10 d
b1 c
b10 [
b0 b
b100011 _
1"
#850
0"
#875
b0 &
b0 4
b0 7
b11 f
b11111111111111111111111111111111 h
b10000 -
b10000 1
b10000 X
b10000 g
1,
0'
1"
#900
0"
#925
b11111111111111111111111111111111 )
b11111111111111111111111111111111 0
b11111111111111111111111111111111 Y
b1111 (
b1111 /
b1111 Z
b100 f
1"
#950
0"
#975
b101 f
1"
#1000
0"
#1025
b0 f
b1100 $
b1100 `
b0 -
b0 1
b0 X
b0 )
b0 0
b0 Y
b0 (
b0 /
b0 Z
0,
1"
#1050
0"
#1075
b110010011 &
b110010011 4
b110010011 7
b1100 !
b1100 .
b1 f
b10000 a
b1100 %
b1100 5
b1100 ^
1'
1"
#1100
0"
#1125
b10 f
b0 d
b0 c
b0 [
b11 b
b10011 _
1"
#1150
0"
#1175
b0 &
b0 4
b0 7
b11 f
b0 i
0'
1"
#1200
0"
#1225
b100 f
1"
#1250
0"
#1275
b101 f
1"
#1300
0"
#1325
b0 f
b10000 $
b10000 `
1"
#1350
0"
#1375
b1010000110000011 &
b1010000110000011 4
b1010000110000011 7
b0 !
b0 .
b1 f
b10100 a
b10000 %
b10000 5
b10000 ^
1'
1"
#1400
0"
#1425
b10 f
b1 c
b10 [
b11 _
1"
#1450
0"
#1475
b0 &
b0 4
b0 7
b11 f
b10000 -
b10000 1
b10000 X
1*
1,
0'
1"
#1500
0"
#1525
b11111111111111111111111111111111 +
b11111111111111111111111111111111 2
b11111111111111111111111111111111 6
b100 f
1"
#1550
0"
#1575
b11111111111111111111111111111111 i
b101 f
1"
#1600
0"
#1625
b0 f
b11111111111111111111111111111111 O
b10100 $
b10100 `
b0 -
b0 1
b0 X
0*
0,
1"
#1650
0"
#1675
b1010101100000000001000010011 &
b1010101100000000001000010011 4
b1010101100000000001000010011 7
b100 !
b100 .
b1 f
b11000 a
b10100 %
b10100 5
b10100 ^
1'
1"
#1700
0"
#1725
b10 f
b10101011 ]
b101 \
b1011 d
b0 c
b0 [
b100 b
b10011 _
1"
#1750
0"
#1775
b0 &
b0 4
b0 7
b11 f
b10101011 i
0'
1"
#1800
0"
#1825
b100 f
1"
#1850
0"
#1875
b101 f
1"
#1900
0"
#1925
b0 f
b10101011 R
b11000 $
b11000 `
1"
#1950
0"
#1975
b10000001000001000100011 &
b10000001000001000100011 4
b10000001000001000100011 7
b1000 !
b1000 .
b1 f
b11100 a
b11000 %
b11000 5
b11000 ^
1'
1"
#2000
0"
#2025
b10 f
b100 ]
b0 \
b100 d
b1 c
b100011 _
1"
#2050
0"
#2075
b0 &
b0 4
b0 7
b11 f
b10101011 h
b10100 -
b10100 1
b10100 X
b10100 g
1,
0'
1"
#2100
0"
#2125
b10101011 )
b10101011 0
b10101011 Y
b1 (
b1 /
b1 Z
b100 f
1"
#2150
0"
#2175
b101 f
1"
#2200
0"
#2225
b0 f
b11100 $
b11100 `
b0 -
b0 1
b0 X
b0 )
b0 0
b0 Y
b0 (
b0 /
b0 Z
0,
1"
#2250
0"
#2275
b10000001100001010000011 &
b10000001100001010000011 4
b10000001100001010000011 7
b1100 !
b1100 .
b1 f
b100000 a
b11100 %
b11100 5
b11100 ^
1'
1"
#2300
0"
#2325
b10 f
b100 [
b101 b
b11 _
1"
#2350
0"
#2375
b0 &
b0 4
b0 7
b11 f
b10100 -
b10100 1
b10100 X
1*
1,
0'
1"
#2400
0"
#2425
bx10101011 +
bx10101011 2
bx10101011 6
b100 f
1"
#2450
0"
#2475
b101 f
1"
#2500
0"
#2525
b0 f
b10101011 S
b100000 $
b100000 `
b0 -
b0 1
b0 X
0*
0,
1"
#2550
0"
#2575
b10000001000001100000011 &
b10000001000001100000011 4
b10000001000001100000011 7
b0 !
b0 .
b1 f
b100100 a
b100000 %
b100000 5
b100000 ^
1'
1"
#2600
0"
#2625
b10 f
b0 [
b110 b
1"
#2650
0"
#2675
b0 &
b0 4
b0 7
b11 f
b10100 -
b10100 1
b10100 X
1*
1,
0'
1"
#2700
0"
#2725
b100 f
1"
#2750
0"
#2775
b11111111111111111111111110101011 i
b101 f
1"
#2800
0"
#2825
b0 f
b11111111111111111111111110101011 T
b100100 $
b100100 `
b0 -
b0 1
b0 X
0*
0,
1"
#2850
0"
#2875
b10100000000001110010011 &
b10100000000001110010011 4
b10100000000001110010011 7
b100 !
b100 .
b1 f
b101000 a
b100100 %
b100100 5
b100100 ^
1'
1"
#2900
0"
#2925
b10 f
b101 ]
b101 d
b0 c
b111 b
b10011 _
1"
#2950
0"
#2975
b0 &
b0 4
b0 7
b11 f
b101 i
0'
1"
#3000
0"
#3025
b100 f
1"
#3050
0"
#3075
b101 f
1"
#3100
0"
#3125
b0 f
b101 U
b101000 $
b101000 `
1"
#3150
0"
#3175
b10100000000010000010011 &
b10100000000010000010011 4
b10100000000010000010011 7
b1000 !
b1000 .
b1 f
b101100 a
b101000 %
b101000 5
b101000 ^
1'
1"
#3200
0"
#3225
b10 f
b1000 b
1"
#3250
0"
#3275
b0 &
b0 4
b0 7
b11 f
0'
1"
#3300
0"
#3325
b100 f
1"
#3350
0"
#3375
b101 f
1"
#3400
0"
#3425
b0 f
b101 V
b101100 $
b101100 `
1"
#3450
0"
#3475
b100000111000010001100011 &
b100000111000010001100011 4
b100000111000010001100011 7
b1100 !
b1100 .
b1 f
b110000 a
b101100 %
b101100 5
b101100 ^
1'
1"
#3500
0"
#3525
b10 f
b1000 ]
b1000 d
b111 c
b1100011 _
1"
#3550
0"
#3575
b0 &
b0 4
b0 7
b11 f
b110100 a
0'
1"
#3600
0"
#3625
b100 f
1"
#3650
0"
#3675
b101 f
1"
#3700
0"
#3725
b0 f
b110100 $
b110100 `
1"
#3750
0"
#3775
b11000000000010000010011 &
b11000000000010000010011 4
b11000000000010000010011 7
b100 !
b100 .
b1 f
b111000 a
b110100 %
b110100 5
b110100 ^
1'
1"
#3800
0"
#3825
b10 f
b110 ]
b110 d
b0 c
b10011 _
1"
#3850
0"
#3875
b0 &
b0 4
b0 7
b11 f
b110 i
0'
1"
#3900
0"
#3925
b100 f
1"
#3950
0"
#3975
b101 f
1"
#4000
0"
#4025
b0 f
b110 V
b111000 $
b111000 `
1"
#4050
0"
#4075
b100000111001010001100011 &
b100000111001010001100011 4
b100000111001010001100011 7
b1000 !
b1000 .
b1 f
b111100 a
b111000 %
b111000 5
b111000 ^
1'
1"
#4100
0"
#4125
b10 f
b1000 ]
b1000 d
b111 c
b1 [
b1100011 _
1"
#4150
0"
#4175
b0 &
b0 4
b0 7
b11 f
b1000000 a
0'
1"
#4200
0"
#4225
b100 f
1"
#4250
0"
#4275
b101 f
1"
#4300
0"
#4325
b0 f
b1000000 $
b1000000 `
1"
#4350
0"
#4375
b11111111011000000000010010010011 &
b11111111011000000000010010010011 4
b11111111011000000000010010010011 7
b0 !
b0 .
b1 f
b1000100 a
b1000000 %
b1000000 5
b1000000 ^
1'
1"
#4400
0"
#4425
b10 f
b11111111111111111111111111110110 ]
b1111111 \
b10110 d
b0 c
b0 [
b1001 b
b10011 _
1"
#4450
0"
#4475
b0 &
b0 4
b0 7
b11 f
b11111111111111111111111111110110 i
0'
1"
#4500
0"
#4525
b100 f
1"
#4550
0"
#4575
b101 f
1"
#4600
0"
#4625
b0 f
b11111111111111111111111111110110 W
b1000100 $
b1000100 `
1"
#4650
0"
#4675
b1000000000010100010011 &
b1000000000010100010011 4
b1000000000010100010011 7
b100 !
b100 .
b1 f
b1001000 a
b1000100 %
b1000100 5
b1000100 ^
1'
1"
#4700
0"
#4725
b10 f
b10 ]
b0 \
b10 d
b1010 b
1"
#4750
0"
#4775
b0 &
b0 4
b0 7
b11 f
b10 i
0'
1"
#4800
0"
#4825
b100 f
1"
#4850
0"
#4875
b101 f
1"
#4900
0"
#4925
b0 f
b10 :
b1001000 $
b1001000 `
1"
#4950
0"
#4975
b101001001100010001100011 &
b101001001100010001100011 4
b101001001100010001100011 7
b1000 !
b1000 .
b1 f
b1001100 a
b1001000 %
b1001000 5
b1001000 ^
1'
1"
#5000
0"
#5025
b10 f
b1000 ]
b1010 d
b1001 c
b100 [
b1000 b
b1100011 _
1"
#5050
0"
#5075
b0 &
b0 4
b0 7
b11 f
b1010000 a
0'
1"
#5100
0"
#5125
b100 f
1"
#5150
0"
#5175
b101 f
1"
#5200
0"
#5225
b0 f
b10 V
b1010000 $
b1010000 `
1"
#5250
0"
#5275
b1010110110111 &
b1010110110111 4
b1010110110111 7
b0 !
b0 .
b1 f
b1010100 a
b1010000 %
b1010000 5
b1010000 ^
1'
1"
#5300
0"
#5325
b10 f
b1000000000000 ]
b0 d
b0 c
b1 [
b1011 b
b110111 _
1"
#5350
0"
#5375
b0 &
b0 4
b0 7
b11 f
b1000000000000 i
0'
1"
#5400
0"
#5425
b100 f
1"
#5450
0"
#5475
b101 f
1"
#5500
0"
#5525
b0 f
b1000000000000 ;
b1010100 $
b1010100 `
1"
#5550
0"
#5575
b10110110001011000010110011011 &
b10110110001011000010110011011 4
b10110110001011000010110011011 7
b100 !
b100 .
b1 f
b1011000 a
b1010100 %
b1010100 5
b1010100 ^
1'
1"
#5600
0"
#5625
b10 f
b0 ]
b1011 \
b1100 d
b1011 c
b0 [
b11011 _
1"
#5650
0"
#5675
b0 &
b0 4
b0 7
b11 f
0'
1"
#5700
0"
#5725
b100 f
1"
#5750
0"
#5775
b101 f
1"
#5800
0"
#5825
b0 f
b1011000 $
b1011000 `
1"
#5850
0"
#5875
b101100001001010000100011 &
b101100001001010000100011 4
b101100001001010000100011 7
b1000 !
b1000 .
b1 f
b1011100 a
b1011000 %
b1011000 5
b1011000 ^
1'
1"
#5900
0"
#5925
b10 f
b1000 ]
b0 \
b1011 d
b1 c
b1 [
b1000 b
b100011 _
1"
#5950
0"
#5975
b0 &
b0 4
b0 7
b11 f
b1000000000000 h
b11000 -
b11000 1
b11000 X
b11000 g
1,
0'
1"
#6000
0"
#6025
b1000000000000 )
b1000000000000 0
b1000000000000 Y
b11 (
b11 /
b11 Z
b100 f
1"
#6050
0"
#6075
b101 f
1"
#6100
0"
#6125
b0 f
b1000000000000 V
b1011100 $
b1011100 `
b0 -
b0 1
b0 X
b0 )
b0 0
b0 Y
b0 (
b0 /
b0 Z
0,
1"
#6150
0"
#6175
b100000001001011000000011 &
b100000001001011000000011 4
b100000001001011000000011 7
b1100 !
b1100 .
b1 f
b1100000 a
b1011100 %
b1011100 5
b1011100 ^
1'
1"
#6200
0"
#6225
b10 f
b1000 d
b1100 b
b11 _
1"
#6250
0"
#6275
b0 &
b0 4
b0 7
b11 f
b11000 -
b11000 1
b11000 X
1*
1,
0'
1"
#6300
0"
#6325
bx0001000000000000 +
bx0001000000000000 2
bx0001000000000000 6
b100 f
1"
#6350
0"
#6375
b101 f
1"
#6400
0"
#6425
b0 f
b1000000000000 <
b1100000 $
b1100000 `
b0 -
b0 1
b0 X
0*
0,
1"
#6450
0"
#6475
b100000000111110010011 &
b100000000111110010011 4
b100000000111110010011 7
b0 !
b0 .
b1 f
b1100100 a
b1100000 %
b1100000 5
b1100000 ^
1'
1"
#6500
0"
#6525
b10 f
b1 ]
b1 d
b0 c
b0 [
b11111 b
b10011 _
1"
#6550
0"
#6575
b0 &
b0 4
b0 7
b11 f
b1 i
0'
1"
#6600
0"
#6625
b100 f
1"
#6650
0"
#6675
b101 f
1"
#6700
0"
#6725
b0 f
b1 Q
b1100100 $
b1100100 `
1"
#6750
0"
#6775
b11111111110111111111000001101111 &
b11111111110111111111000001101111 4
b11111111110111111111000001101111 7
b100 !
b100 .
b1 f
b1101000 a
b1100100 %
b1100100 5
b1100100 ^
1'
1"
#6800
0"
#6825
b10 f
b11111111111111111111111111111100 ]
b1111111 \
b11101 d
b11111 c
b111 [
b0 b
b1101111 _
1"
#6850
0"
#6875
b0 &
b0 4
b0 7
b11 f
b1100000 a
b1101000 i
0'
1"
#6900
0"
#6925
b100 f
1"
#6950
0"
#6975
b101 f
1"
#7000
0"
#7025
b0 f
b1100000 $
b1100000 `
1"
#7050
0"
#7075
b100000000111110010011 &
b100000000111110010011 4
b100000000111110010011 7
b0 !
b0 .
b1 f
b1100100 a
b1100000 %
b1100000 5
b1100000 ^
1'
1"
#7100
0"
#7125
b10 f
b1 ]
b0 \
b1 d
b0 c
b0 [
b11111 b
b10011 _
1"
#7150
0"
#7175
b0 &
b0 4
b0 7
b11 f
b1 i
0'
1"
#7200
0"
#7225
b100 f
1"
#7250
0"
#7275
b101 f
1"
#7300
0"
#7325
b0 f
b1100100 $
b1100100 `
1"
#7350
0"
#7375
b11111111110111111111000001101111 &
b11111111110111111111000001101111 4
b11111111110111111111000001101111 7
b100 !
b100 .
b1 f
b1101000 a
b1100100 %
b1100100 5
b1100100 ^
1'
1"
#7400
0"
#7425
b10 f
b11111111111111111111111111111100 ]
b1111111 \
b11101 d
b11111 c
b111 [
b0 b
b1101111 _
1"
#7450
0"
#7475
b0 &
b0 4
b0 7
b11 f
b1100000 a
b1101000 i
0'
1"
#7500
0"
#7525
b100 f
1"
#7550
0"
#7575
b101 f
1"
#7600
0"
#7625
b0 f
b1100000 $
b1100000 `
1"
#7650
0"
#7675
b100000000111110010011 &
b100000000111110010011 4
b100000000111110010011 7
b0 !
b0 .
b1 f
b1100100 a
b1100000 %
b1100000 5
b1100000 ^
1'
1"
#7700
0"
#7725
b10 f
b1 ]
b0 \
b1 d
b0 c
b0 [
b11111 b
b10011 _
1"
#7750
0"
#7775
b0 &
b0 4
b0 7
b11 f
b1 i
0'
1"
#7800
0"
#7825
b100 f
1"
#7850
0"
#7875
b101 f
1"
#7900
0"
#7925
b0 f
b1100100 $
b1100100 `
1"
#7950
0"
#7975
b11111111110111111111000001101111 &
b11111111110111111111000001101111 4
b11111111110111111111000001101111 7
b100 !
b100 .
b1 f
b1101000 a
b1100100 %
b1100100 5
b1100100 ^
1'
1"
#8000
0"
#8025
b10 f
b11111111111111111111111111111100 ]
b1111111 \
b11101 d
b11111 c
b111 [
b0 b
b1101111 _
1"
#8050
0"
#8075
b0 &
b0 4
b0 7
b11 f
b1100000 a
b1101000 i
0'
1"
#8100
0"
#8125
b100 f
1"
#8150
0"
#8175
b101 f
1"
#8200
0"
#8225
b0 f
b1100000 $
b1100000 `
1"
#8250
0"
#8275
b100000000111110010011 &
b100000000111110010011 4
b100000000111110010011 7
b0 !
b0 .
b1 f
b1100100 a
b1100000 %
b1100000 5
b1100000 ^
1'
1"
#8300
0"
#8325
b10 f
b1 ]
b0 \
b1 d
b0 c
b0 [
b11111 b
b10011 _
1"
#8350
0"
#8375
b0 &
b0 4
b0 7
b11 f
b1 i
0'
1"
#8400
0"
#8425
b100 f
1"
#8450
0"
#8475
b101 f
1"
#8500
0"
#8525
b0 f
b1100100 $
b1100100 `
1"
#8550
0"
#8575
b11111111110111111111000001101111 &
b11111111110111111111000001101111 4
b11111111110111111111000001101111 7
b100 !
b100 .
b1 f
b1101000 a
b1100100 %
b1100100 5
b1100100 ^
1'
1"
#8600
0"
#8625
b10 f
b11111111111111111111111111111100 ]
b1111111 \
b11101 d
b11111 c
b111 [
b0 b
b1101111 _
1"
#8650
0"
#8675
b0 &
b0 4
b0 7
b11 f
b1100000 a
b1101000 i
0'
1"
#8700
0"
#8725
b100 f
1"
#8750
0"
#8775
b101 f
1"
#8800
0"
#8825
b0 f
b1100000 $
b1100000 `
1"
#8850
0"
#8875
b100000000111110010011 &
b100000000111110010011 4
b100000000111110010011 7
b0 !
b0 .
b1 f
b1100100 a
b1100000 %
b1100000 5
b1100000 ^
1'
1"
#8900
0"
#8925
b10 f
b1 ]
b0 \
b1 d
b0 c
b0 [
b11111 b
b10011 _
1"
#8950
0"
#8975
b0 &
b0 4
b0 7
b11 f
b1 i
0'
1"
#9000
0"
#9025
b100 f
1"
#9050
0"
#9075
b101 f
1"
#9100
0"
#9125
b0 f
b1100100 $
b1100100 `
1"
#9150
0"
#9175
b11111111110111111111000001101111 &
b11111111110111111111000001101111 4
b11111111110111111111000001101111 7
b100 !
b100 .
b1 f
b1101000 a
b1100100 %
b1100100 5
b1100100 ^
1'
1"
#9200
0"
#9225
b10 f
b11111111111111111111111111111100 ]
b1111111 \
b11101 d
b11111 c
b111 [
b0 b
b1101111 _
1"
#9250
0"
#9275
b0 &
b0 4
b0 7
b11 f
b1100000 a
b1101000 i
0'
1"
#9300
0"
#9325
b100 f
1"
#9350
0"
#9375
b101 f
1"
#9400
0"
#9425
b0 f
b1100000 $
b1100000 `
1"
#9450
0"
#9475
b100000000111110010011 &
b100000000111110010011 4
b100000000111110010011 7
b0 !
b0 .
b1 f
b1100100 a
b1100000 %
b1100000 5
b1100000 ^
1'
1"
#9500
0"
#9525
b10 f
b1 ]
b0 \
b1 d
b0 c
b0 [
b11111 b
b10011 _
1"
#9550
0"
#9575
b0 &
b0 4
b0 7
b11 f
b1 i
0'
1"
#9600
0"
#9625
b100 f
1"
#9650
0"
#9675
b101 f
1"
#9700
0"
#9725
b0 f
b1100100 $
b1100100 `
1"
#9750
0"
#9775
b11111111110111111111000001101111 &
b11111111110111111111000001101111 4
b11111111110111111111000001101111 7
b100 !
b100 .
b1 f
b1101000 a
b1100100 %
b1100100 5
b1100100 ^
1'
1"
#9800
0"
#9825
b10 f
b11111111111111111111111111111100 ]
b1111111 \
b11101 d
b11111 c
b111 [
b0 b
b1101111 _
1"
#9850
0"
#9875
b0 &
b0 4
b0 7
b11 f
b1100000 a
b1101000 i
0'
1"
#9900
0"
#9925
b100 f
1"
#9950
0"
#9975
b101 f
1"
#10000
0"
#10025
b0 f
b1100000 $
b1100000 `
1"
#10050
0"
#10075
b100000000111110010011 &
b100000000111110010011 4
b100000000111110010011 7
b0 !
b0 .
b1 f
b1100100 a
b1100000 %
b1100000 5
b1100000 ^
1'
1"
#10100
0"
#10125
b10 f
b1 ]
b0 \
b1 d
b0 c
b0 [
b11111 b
b10011 _
1"
#10150
0"
#10175
b0 &
b0 4
b0 7
b11 f
b1 i
0'
1"
#10200
0"
#10225
b100 f
1"
#10250
0"
#10275
b101 f
1"
#10300
0"
#10325
b0 f
b1100100 $
b1100100 `
1"
#10350
0"
#10375
b11111111110111111111000001101111 &
b11111111110111111111000001101111 4
b11111111110111111111000001101111 7
b100 !
b100 .
b1 f
b1101000 a
b1100100 %
b1100100 5
b1100100 ^
1'
1"
#10400
0"
#10425
b10 f
b11111111111111111111111111111100 ]
b1111111 \
b11101 d
b11111 c
b111 [
b0 b
b1101111 _
1"
#10450
0"
#10475
b0 &
b0 4
b0 7
b11 f
b1100000 a
b1101000 i
0'
1"
#10500
0"
#10525
b100 f
1"
#10550
0"
#10575
b101 f
1"
#10600
0"
#10625
b0 f
b1100000 $
b1100000 `
1"
#10650
0"
#10675
b100000000111110010011 &
b100000000111110010011 4
b100000000111110010011 7
b0 !
b0 .
b1 f
b1100100 a
b1100000 %
b1100000 5
b1100000 ^
1'
1"
#10700
0"
#10725
b10 f
b1 ]
b0 \
b1 d
b0 c
b0 [
b11111 b
b10011 _
1"
#10750
0"
#10775
b0 &
b0 4
b0 7
b11 f
b1 i
0'
1"
#10800
0"
#10825
b100 f
1"
#10850
0"
#10875
b101 f
1"
#10900
0"
#10925
b0 f
b1100100 $
b1100100 `
1"
#10950
0"
#10975
b11111111110111111111000001101111 &
b11111111110111111111000001101111 4
b11111111110111111111000001101111 7
b100 !
b100 .
b1 f
b1101000 a
b1100100 %
b1100100 5
b1100100 ^
1'
1"
#11000
0"
#11025
b10 f
b11111111111111111111111111111100 ]
b1111111 \
b11101 d
b11111 c
b111 [
b0 b
b1101111 _
1"
#11050
0"
#11075
b0 &
b0 4
b0 7
b11 f
b1100000 a
b1101000 i
0'
1"
#11100
0"
#11125
b100 f
1"
#11150
0"
#11175
b101 f
1"
#11200
0"
#11225
b0 f
b1100000 $
b1100000 `
1"
#11250
0"
#11275
b100000000111110010011 &
b100000000111110010011 4
b100000000111110010011 7
b0 !
b0 .
b1 f
b1100100 a
b1100000 %
b1100000 5
b1100000 ^
1'
1"
#11300
0"
#11325
b10 f
b1 ]
b0 \
b1 d
b0 c
b0 [
b11111 b
b10011 _
1"
#11350
0"
#11375
b0 &
b0 4
b0 7
b11 f
b1 i
0'
1"
#11400
0"
#11425
b100 f
1"
#11450
0"
#11475
b101 f
1"
#11500
0"
#11525
b0 f
b1100100 $
b1100100 `
1"
#11550
0"
#11575
b11111111110111111111000001101111 &
b11111111110111111111000001101111 4
b11111111110111111111000001101111 7
b100 !
b100 .
b1 f
b1101000 a
b1100100 %
b1100100 5
b1100100 ^
1'
1"
#11600
0"
#11625
b10 f
b11111111111111111111111111111100 ]
b1111111 \
b11101 d
b11111 c
b111 [
b0 b
b1101111 _
1"
#11650
0"
#11675
b0 &
b0 4
b0 7
b11 f
b1100000 a
b1101000 i
0'
1"
#11700
0"
#11725
b100 f
1"
#11750
0"
#11775
b101 f
1"
#11800
0"
#11825
b0 f
b1100000 $
b1100000 `
1"
#11850
0"
#11875
b100000000111110010011 &
b100000000111110010011 4
b100000000111110010011 7
b0 !
b0 .
b1 f
b1100100 a
b1100000 %
b1100000 5
b1100000 ^
1'
1"
#11900
0"
#11925
b10 f
b1 ]
b0 \
b1 d
b0 c
b0 [
b11111 b
b10011 _
1"
#11950
0"
#11975
b0 &
b0 4
b0 7
b11 f
b1 i
0'
1"
#12000
0"
#12025
b100 f
1"
#12050
0"
#12075
b101 f
1"
#12100
0"
#12125
b0 f
b1100100 $
b1100100 `
1"
#12150
0"
#12175
b11111111110111111111000001101111 &
b11111111110111111111000001101111 4
b11111111110111111111000001101111 7
b100 !
b100 .
b1 f
b1101000 a
b1100100 %
b1100100 5
b1100100 ^
1'
1"
#12200
0"
#12225
b10 f
b11111111111111111111111111111100 ]
b1111111 \
b11101 d
b11111 c
b111 [
b0 b
b1101111 _
1"
#12250
0"
#12275
b0 &
b0 4
b0 7
b11 f
b1100000 a
b1101000 i
0'
1"
#12300
0"
#12325
b100 f
1"
#12350
0"
#12375
b101 f
1"
#12400
0"
#12425
b0 f
b1100000 $
b1100000 `
1"
#12450
0"
#12475
b100000000111110010011 &
b100000000111110010011 4
b100000000111110010011 7
b0 !
b0 .
b1 f
b1100100 a
b1100000 %
b1100000 5
b1100000 ^
1'
1"
#12500
0"
#12525
b10 f
b1 ]
b0 \
b1 d
b0 c
b0 [
b11111 b
b10011 _
1"
#12550
0"
#12575
b0 &
b0 4
b0 7
b11 f
b1 i
0'
1"
#12600
0"
#12625
b100 f
1"
#12650
0"
#12675
b101 f
1"
#12700
0"
#12725
b0 f
b1100100 $
b1100100 `
1"
#12750
0"
#12775
b11111111110111111111000001101111 &
b11111111110111111111000001101111 4
b11111111110111111111000001101111 7
b100 !
b100 .
b1 f
b1101000 a
b1100100 %
b1100100 5
b1100100 ^
1'
1"
#12800
0"
#12825
b10 f
b11111111111111111111111111111100 ]
b1111111 \
b11101 d
b11111 c
b111 [
b0 b
b1101111 _
1"
#12850
0"
#12875
b0 &
b0 4
b0 7
b11 f
b1100000 a
b1101000 i
0'
1"
#12900
0"
#12925
b100 f
1"
#12950
0"
#12975
b101 f
1"
#13000
0"
#13025
b0 f
b1100000 $
b1100000 `
1"
#13050
0"
#13075
b100000000111110010011 &
b100000000111110010011 4
b100000000111110010011 7
b0 !
b0 .
b1 f
b1100100 a
b1100000 %
b1100000 5
b1100000 ^
1'
1"
#13100
0"
#13125
b10 f
b1 ]
b0 \
b1 d
b0 c
b0 [
b11111 b
b10011 _
1"
#13150
0"
